%!PS-Adobe-3.0 EPSF-3.0
%%Title: circle.eps
%%Creator: matplotlib version 2.1.0, http://matplotlib.org/
%%CreationDate: Tue Feb 13 15:53:01 2018
%%Orientation: portrait
%%BoundingBox: -54 180 666 612
%%EndComments
%%BeginProlog
/mpldict 7 dict def
mpldict begin
/m { moveto } bind def
/l { lineto } bind def
/r { rlineto } bind def
/c { curveto } bind def
/cl { closepath } bind def
/box {
m
1 index 0 r
0 exch r
neg 0 r
cl
} bind def
/clipbox {
box
clip
newpath
} bind def
end
%%EndProlog
mpldict begin
-54 180 translate
720 432 0 0 clipbox
gsave
0 0 m
720 0 l
720 432 l
0 432 l
cl
1.000 setgray
fill
grestore

end
showpage
